HELLO from client ('127.0.0.1', 62070)
Response: 1 b'-----BEGIN PUBLIC KEY-----\nMIIBIjANBgkqhkiG9w0BAQEFAAOCAQ8AMIIBCgKCAQEAnxkEw3gzFphUCwyzFApc\n8KuFBHPCuaSR8nwLd+irdP7AhZsZgJ1xlBIfcsB0b44mdqjhkJhJ6rWhGysp3hPs\nsAFVcH/RfNiJUvfBtdxSXEBaCQruUBJOAM1AErhhAEgycgHud7RvcnBhKHpjQVUW\nBSqk1NyPjQkcTORsoWFvPRJrj4QAM0dPS/x9/PXGBfgOCaouQHOWkwd0F3ac0get\n44TX/O/9dCRwqUrTXDOvzvxu2jBll7w6rY3pKqrLV65movFQbfNaXQb8zp8UQh1x\nZYB2n0A8GuGTlUVG+iPg6mB5WUpLq6kQhnjS6+luRutJD88Uk2XsItmsHdMXTCa+\n5wIDAQAB\n-----END PUBLIC KEY-----\n'

HELLO from client ('127.0.0.1', 62085)
Response: 1 b'-----BEGIN PUBLIC KEY-----\nMIIBIjANBgkqhkiG9w0BAQEFAAOCAQ8AMIIBCgKCAQEAq+sXcjdRXzhYlmlsRbZx\n/GAQVRvnL2d7fl3OImNMlTsWlZPdnesleqMxPJRFVfTlpTl3ZY5GnnQ+bqzBPYqj\n0sGEZoO0qT4WVxgjIynG9t7h67po9v6vVX2fAKK6fEfR+LDta+xLFPYrX2qhTyYh\npTlvXuCLZBS18HPo/w4VCS4m/QMOwSlbsPZ3ZTl3+UrW9dCjv+GBI7C/ZxmFFwRx\n4FmfK79l3WfS0C/qZ5plJY9aLt4SapWuJ1Gj7YYt6To/XTo547SamtjZjeVEJtpe\naIMTfa3ULqzSzp3OPTjx1UQK4t5GJ7/YWFYsdOh7KTGddR8PiEMVc5K06zJ69I/H\nTQIDAQAB\n-----END PUBLIC KEY-----\n'

